<?xml version="1.0" encoding="UTF-8"?>
<model ref="00000000-0000-4000-5f02-5beb5f025beb/i:f96f183(checkpoints/Bibliography.constraints@descriptorclasses)">
  <persistence version="9" />
  <attribute name="checkpoint" value="DescriptorClasses" />
  <attribute name="generation-plan" value="AspectCPS" />
  <languages />
  <imports>
    <import index="xjbo" ref="r:a2a7e978-bf89-4681-b70e-c3b54a2ecc58(Bibliography.constraints)" />
    <import index="c17a" ref="8865b7a8-5271-43d3-884c-6fd1d9cfdd34/java:org.jetbrains.mps.openapi.language(MPS.OpenAPI/)" />
    <import index="2k9e" ref="6ed54515-acc8-4d1e-a16c-9fd6cfe951ea/java:jetbrains.mps.smodel.adapter.structure(MPS.Core/)" />
    <import index="ze1i" ref="6ed54515-acc8-4d1e-a16c-9fd6cfe951ea/java:jetbrains.mps.smodel.runtime(MPS.Core/)" />
    <import index="33ny" ref="6354ebe7-c22a-4a0f-ac54-50b52ab9b065/java:java.util(JDK/)" />
    <import index="79pl" ref="6ed54515-acc8-4d1e-a16c-9fd6cfe951ea/java:jetbrains.mps.smodel.runtime.base(MPS.Core/)" />
    <import index="35tq" ref="6ed54515-acc8-4d1e-a16c-9fd6cfe951ea/java:jetbrains.mps.scope(MPS.Core/)" />
    <import index="mhfm" ref="3f233e7f-b8a6-46d2-a57f-795d56775243/java:org.jetbrains.annotations(Annotations/)" />
    <import index="mhbf" ref="8865b7a8-5271-43d3-884c-6fd1d9cfdd34/java:org.jetbrains.mps.openapi.model(MPS.OpenAPI/)" />
    <import index="w1kc" ref="6ed54515-acc8-4d1e-a16c-9fd6cfe951ea/java:jetbrains.mps.smodel(MPS.Core/)" />
    <import index="wyt6" ref="6354ebe7-c22a-4a0f-ac54-50b52ab9b065/java:java.lang(JDK/)" />
    <import index="u5vo" ref="r:d4261686-76cd-4625-9a30-7257a3f0abb0(Bibliography.structure)" />
  </imports>
  <registry>
    <language id="f3061a53-9226-4cc5-a443-f952ceaf5816" name="jetbrains.mps.baseLanguage">
      <concept id="1202948039474" name="jetbrains.mps.baseLanguage.structure.InstanceMethodCallOperation" flags="nn" index="liA8E" />
      <concept id="1465982738277781862" name="jetbrains.mps.baseLanguage.structure.PlaceholderMember" flags="ng" index="2tJIrI" />
      <concept id="1188207840427" name="jetbrains.mps.baseLanguage.structure.AnnotationInstance" flags="nn" index="2AHcQZ">
        <reference id="1188208074048" name="annotation" index="2AI5Lk" />
      </concept>
      <concept id="1188208481402" name="jetbrains.mps.baseLanguage.structure.HasAnnotation" flags="ng" index="2AJDlI">
        <child id="1188208488637" name="annotation" index="2AJF6D" />
      </concept>
      <concept id="1197027756228" name="jetbrains.mps.baseLanguage.structure.DotExpression" flags="nn" index="2OqwBi">
        <child id="1197027771414" name="operand" index="2Oq$k0" />
        <child id="1197027833540" name="operation" index="2OqNvi" />
      </concept>
      <concept id="1145552977093" name="jetbrains.mps.baseLanguage.structure.GenericNewExpression" flags="nn" index="2ShNRf">
        <child id="1145553007750" name="creator" index="2ShVmc" />
      </concept>
      <concept id="1070475354124" name="jetbrains.mps.baseLanguage.structure.ThisExpression" flags="nn" index="Xjq3P" />
      <concept id="1070475587102" name="jetbrains.mps.baseLanguage.structure.SuperConstructorInvocation" flags="nn" index="XkiVB" />
      <concept id="1070475926800" name="jetbrains.mps.baseLanguage.structure.StringLiteral" flags="nn" index="Xl_RD">
        <property id="1070475926801" name="value" index="Xl_RC" />
      </concept>
      <concept id="1182160077978" name="jetbrains.mps.baseLanguage.structure.AnonymousClassCreator" flags="nn" index="YeOm9">
        <child id="1182160096073" name="cls" index="YeSDq" />
      </concept>
      <concept id="1081236700937" name="jetbrains.mps.baseLanguage.structure.StaticMethodCall" flags="nn" index="2YIFZM">
        <reference id="1144433194310" name="classConcept" index="1Pybhc" />
      </concept>
      <concept id="1070534058343" name="jetbrains.mps.baseLanguage.structure.NullLiteral" flags="nn" index="10Nm6u" />
      <concept id="1070534644030" name="jetbrains.mps.baseLanguage.structure.BooleanType" flags="in" index="10P_77" />
      <concept id="1068390468198" name="jetbrains.mps.baseLanguage.structure.ClassConcept" flags="ig" index="312cEu">
        <child id="1165602531693" name="superclass" index="1zkMxy" />
      </concept>
      <concept id="1068431474542" name="jetbrains.mps.baseLanguage.structure.VariableDeclaration" flags="ng" index="33uBYm">
        <property id="1176718929932" name="isFinal" index="3TUv4t" />
        <child id="1068431790190" name="initializer" index="33vP2m" />
      </concept>
      <concept id="1068498886296" name="jetbrains.mps.baseLanguage.structure.VariableReference" flags="nn" index="37vLTw">
        <reference id="1068581517664" name="variableDeclaration" index="3cqZAo" />
      </concept>
      <concept id="1068498886292" name="jetbrains.mps.baseLanguage.structure.ParameterDeclaration" flags="ir" index="37vLTG" />
      <concept id="4972933694980447171" name="jetbrains.mps.baseLanguage.structure.BaseVariableDeclaration" flags="ng" index="19Szcq">
        <child id="5680397130376446158" name="type" index="1tU5fm" />
      </concept>
      <concept id="4269842503726207156" name="jetbrains.mps.baseLanguage.structure.LongLiteral" flags="nn" index="1adDum">
        <property id="4269842503726207157" name="value" index="1adDun" />
      </concept>
      <concept id="1068580123132" name="jetbrains.mps.baseLanguage.structure.BaseMethodDeclaration" flags="ng" index="3clF44">
        <property id="1181808852946" name="isFinal" index="DiZV1" />
        <child id="1068580123133" name="returnType" index="3clF45" />
        <child id="1068580123134" name="parameter" index="3clF46" />
        <child id="1068580123135" name="body" index="3clF47" />
      </concept>
      <concept id="1068580123165" name="jetbrains.mps.baseLanguage.structure.InstanceMethodDeclaration" flags="ig" index="3clFb_">
        <property id="1178608670077" name="isAbstract" index="1EzhhJ" />
      </concept>
      <concept id="1068580123152" name="jetbrains.mps.baseLanguage.structure.EqualsExpression" flags="nn" index="3clFbC" />
      <concept id="1068580123155" name="jetbrains.mps.baseLanguage.structure.ExpressionStatement" flags="nn" index="3clFbF">
        <child id="1068580123156" name="expression" index="3clFbG" />
      </concept>
      <concept id="1068580123136" name="jetbrains.mps.baseLanguage.structure.StatementList" flags="sn" stub="5293379017992965193" index="3clFbS">
        <child id="1068581517665" name="statement" index="3cqZAp" />
      </concept>
      <concept id="1068580123137" name="jetbrains.mps.baseLanguage.structure.BooleanConstant" flags="nn" index="3clFbT">
        <property id="1068580123138" name="value" index="3clFbU" />
      </concept>
      <concept id="1068580123140" name="jetbrains.mps.baseLanguage.structure.ConstructorDeclaration" flags="ig" index="3clFbW" />
      <concept id="1068581242878" name="jetbrains.mps.baseLanguage.structure.ReturnStatement" flags="nn" index="3cpWs6">
        <child id="1068581517676" name="expression" index="3cqZAk" />
      </concept>
      <concept id="1068581242864" name="jetbrains.mps.baseLanguage.structure.LocalVariableDeclarationStatement" flags="nn" index="3cpWs8">
        <child id="1068581242865" name="localVariableDeclaration" index="3cpWs9" />
      </concept>
      <concept id="1068581242863" name="jetbrains.mps.baseLanguage.structure.LocalVariableDeclaration" flags="nr" index="3cpWsn" />
      <concept id="1068581517677" name="jetbrains.mps.baseLanguage.structure.VoidType" flags="in" index="3cqZAl" />
      <concept id="1204053956946" name="jetbrains.mps.baseLanguage.structure.IMethodCall" flags="ng" index="1ndlxa">
        <reference id="1068499141037" name="baseMethodDeclaration" index="37wK5l" />
        <child id="1068499141038" name="actualArgument" index="37wK5m" />
      </concept>
      <concept id="1212685548494" name="jetbrains.mps.baseLanguage.structure.ClassCreator" flags="nn" index="1pGfFk">
        <child id="1212687122400" name="typeParameter" index="1pMfVU" />
      </concept>
      <concept id="1107461130800" name="jetbrains.mps.baseLanguage.structure.Classifier" flags="ng" index="3pOWGL">
        <property id="521412098689998745" name="nonStatic" index="2bfB8j" />
        <child id="5375687026011219971" name="member" index="jymVt" unordered="true" />
      </concept>
      <concept id="1107535904670" name="jetbrains.mps.baseLanguage.structure.ClassifierType" flags="in" index="3uibUv">
        <reference id="1107535924139" name="classifier" index="3uigEE" />
        <child id="1109201940907" name="parameter" index="11_B2D" />
      </concept>
      <concept id="1081773326031" name="jetbrains.mps.baseLanguage.structure.BinaryOperation" flags="nn" index="3uHJSO">
        <child id="1081773367579" name="rightExpression" index="3uHU7w" />
        <child id="1081773367580" name="leftExpression" index="3uHU7B" />
      </concept>
      <concept id="1178549954367" name="jetbrains.mps.baseLanguage.structure.IVisible" flags="ng" index="1B3ioH">
        <child id="1178549979242" name="visibility" index="1B3o_S" />
      </concept>
      <concept id="1163668896201" name="jetbrains.mps.baseLanguage.structure.TernaryOperatorExpression" flags="nn" index="3K4zz7">
        <child id="1163668914799" name="condition" index="3K4Cdx" />
        <child id="1163668922816" name="ifTrue" index="3K4E3e" />
        <child id="1163668934364" name="ifFalse" index="3K4GZi" />
      </concept>
      <concept id="1146644602865" name="jetbrains.mps.baseLanguage.structure.PublicVisibility" flags="nn" index="3Tm1VV" />
      <concept id="1146644641414" name="jetbrains.mps.baseLanguage.structure.ProtectedVisibility" flags="nn" index="3Tmbuc" />
      <concept id="1170345865475" name="jetbrains.mps.baseLanguage.structure.AnonymousClass" flags="ig" index="1Y3b0j">
        <reference id="1170346070688" name="classifier" index="1Y3XeK" />
      </concept>
    </language>
    <language id="b401a680-8325-4110-8fd3-84331ff25bef" name="jetbrains.mps.lang.generator">
      <concept id="7980339663309897032" name="jetbrains.mps.lang.generator.structure.OriginTrace" flags="ng" index="cd27G">
        <child id="7980339663309897037" name="origin" index="cd27D" />
      </concept>
      <concept id="3864140621129707969" name="jetbrains.mps.lang.generator.structure.GeneratorDebug_Mappings" flags="nn" index="39dXUE">
        <child id="3864140621129713349" name="labels" index="39e2AI" />
      </concept>
      <concept id="3864140621129713351" name="jetbrains.mps.lang.generator.structure.GeneratorDebug_NodeMapEntry" flags="nn" index="39e2AG">
        <property id="5843998055530255671" name="isNewRoot" index="2mV_xN" />
        <child id="3864140621129713365" name="outputNode" index="39e2AY" />
      </concept>
      <concept id="3864140621129713348" name="jetbrains.mps.lang.generator.structure.GeneratorDebug_LabelEntry" flags="nn" index="39e2AJ">
        <property id="3864140621129715945" name="label" index="39e3Y2" />
        <child id="3864140621129715947" name="entries" index="39e3Y0" />
      </concept>
      <concept id="3864140621129713362" name="jetbrains.mps.lang.generator.structure.GeneratorDebug_NodeRef" flags="nn" index="39e2AT">
        <reference id="3864140621129713363" name="node" index="39e2AS" />
      </concept>
      <concept id="3637169702552512264" name="jetbrains.mps.lang.generator.structure.ElementaryNodeId" flags="ng" index="3u3nmq">
        <property id="3637169702552512269" name="nodeId" index="3u3nmv" />
      </concept>
    </language>
    <language id="df345b11-b8c7-4213-ac66-48d2a9b75d88" name="jetbrains.mps.baseLanguageInternal">
      <concept id="1238251434034" name="jetbrains.mps.baseLanguageInternal.structure.ExtractToConstantExpression" flags="ng" index="1dyn4i">
        <property id="1238251449050" name="fieldName" index="1dyqJU" />
        <property id="8835849473318867199" name="makeUnique" index="1zomUR" />
        <child id="1238251454130" name="expression" index="1dyrYi" />
      </concept>
      <concept id="1173996401517" name="jetbrains.mps.baseLanguageInternal.structure.InternalNewExpression" flags="nn" index="1nCR9W">
        <property id="1173996588177" name="fqClassName" index="1nD$Q0" />
        <child id="1179332974947" name="type" index="2lIhxL" />
      </concept>
      <concept id="4927083583736784422" name="jetbrains.mps.baseLanguageInternal.structure.ExtractToSingleConstantExpression" flags="ng" index="1BaE9c">
        <property id="3566113306135792467" name="baseContainerName" index="1ouuDV" />
        <property id="4927083583736815155" name="uniqueFieldName" index="1BaxDp" />
        <child id="4927083583736819744" name="expression" index="1Bazha" />
      </concept>
    </language>
    <language id="7866978e-a0f0-4cc7-81bc-4d213d9375e1" name="jetbrains.mps.lang.smodel">
      <concept id="2644386474300074836" name="jetbrains.mps.lang.smodel.structure.ConceptIdRefExpression" flags="nn" index="35c_gC">
        <reference id="2644386474300074837" name="conceptDeclaration" index="35c_gD" />
      </concept>
      <concept id="6677504323281689838" name="jetbrains.mps.lang.smodel.structure.SConceptType" flags="in" index="3bZ5Sz" />
      <concept id="1154546950173" name="jetbrains.mps.lang.smodel.structure.ConceptReference" flags="ng" index="3gn64h">
        <reference id="1154546997487" name="concept" index="3gnhBz" />
      </concept>
      <concept id="6039268229364358244" name="jetbrains.mps.lang.smodel.structure.ExactConceptCase" flags="ng" index="1pnPoh">
        <child id="6039268229364358388" name="body" index="1pnPq1" />
        <child id="6039268229364358387" name="concept" index="1pnPq6" />
      </concept>
      <concept id="5944356402132808749" name="jetbrains.mps.lang.smodel.structure.ConceptSwitchStatement" flags="nn" index="1_3QMa">
        <child id="6039268229365417680" name="defaultBlock" index="1prKM_" />
        <child id="5944356402132808753" name="case" index="1_3QMm" />
        <child id="5944356402132808752" name="expression" index="1_3QMn" />
      </concept>
    </language>
    <language id="ceab5195-25ea-4f22-9b92-103b95ca8c0c" name="jetbrains.mps.lang.core">
      <concept id="1133920641626" name="jetbrains.mps.lang.core.structure.BaseConcept" flags="ng" index="2VYdi">
        <property id="1193676396447" name="virtualPackage" index="3GE5qa" />
        <child id="5169995583184591170" name="smodelAttribute" index="lGtFl" />
      </concept>
      <concept id="1169194658468" name="jetbrains.mps.lang.core.structure.INamedConcept" flags="ng" index="TrEIO">
        <property id="1169194664001" name="name" index="TrG5h" />
      </concept>
    </language>
  </registry>
  <node concept="312cEu" id="0">
    <property role="TrG5h" value="AuthorRef_Constraints" />
    <node concept="3Tm1VV" id="1" role="1B3o_S">
      <node concept="cd27G" id="7" role="lGtFl">
        <node concept="3u3nmq" id="8" role="cd27D">
          <property role="3u3nmv" value="146363844082616779" />
        </node>
      </node>
    </node>
    <node concept="3uibUv" id="2" role="1zkMxy">
      <ref role="3uigEE" to="79pl:~BaseConstraintsDescriptor" resolve="BaseConstraintsDescriptor" />
      <node concept="cd27G" id="9" role="lGtFl">
        <node concept="3u3nmq" id="a" role="cd27D">
          <property role="3u3nmv" value="146363844082616779" />
        </node>
      </node>
    </node>
    <node concept="3clFbW" id="3" role="jymVt">
      <node concept="3cqZAl" id="b" role="3clF45">
        <node concept="cd27G" id="f" role="lGtFl">
          <node concept="3u3nmq" id="g" role="cd27D">
            <property role="3u3nmv" value="146363844082616779" />
          </node>
        </node>
      </node>
      <node concept="3clFbS" id="c" role="3clF47">
        <node concept="XkiVB" id="h" role="3cqZAp">
          <ref role="37wK5l" to="79pl:~BaseConstraintsDescriptor.&lt;init&gt;(org.jetbrains.mps.openapi.language.SAbstractConcept)" resolve="BaseConstraintsDescriptor" />
          <node concept="1BaE9c" id="j" role="37wK5m">
            <property role="1ouuDV" value="CONCEPTS" />
            <property role="1BaxDp" value="AuthorRef$z3" />
            <node concept="2YIFZM" id="l" role="1Bazha">
              <ref role="1Pybhc" to="2k9e:~MetaAdapterFactory" resolve="MetaAdapterFactory" />
              <ref role="37wK5l" to="2k9e:~MetaAdapterFactory.getConcept(long,long,long,java.lang.String)" resolve="getConcept" />
              <node concept="1adDum" id="n" role="37wK5m">
                <property role="1adDun" value="0x82d3691319404be3L" />
                <node concept="cd27G" id="s" role="lGtFl">
                  <node concept="3u3nmq" id="t" role="cd27D">
                    <property role="3u3nmv" value="146363844082616779" />
                  </node>
                </node>
              </node>
              <node concept="1adDum" id="o" role="37wK5m">
                <property role="1adDun" value="0xbd33efbc4c3fcff0L" />
                <node concept="cd27G" id="u" role="lGtFl">
                  <node concept="3u3nmq" id="v" role="cd27D">
                    <property role="3u3nmv" value="146363844082616779" />
                  </node>
                </node>
              </node>
              <node concept="1adDum" id="p" role="37wK5m">
                <property role="1adDun" value="0x35aa893613d08097L" />
                <node concept="cd27G" id="w" role="lGtFl">
                  <node concept="3u3nmq" id="x" role="cd27D">
                    <property role="3u3nmv" value="146363844082616779" />
                  </node>
                </node>
              </node>
              <node concept="Xl_RD" id="q" role="37wK5m">
                <property role="Xl_RC" value="Bibliography.structure.AuthorRef" />
                <node concept="cd27G" id="y" role="lGtFl">
                  <node concept="3u3nmq" id="z" role="cd27D">
                    <property role="3u3nmv" value="146363844082616779" />
                  </node>
                </node>
              </node>
              <node concept="cd27G" id="r" role="lGtFl">
                <node concept="3u3nmq" id="$" role="cd27D">
                  <property role="3u3nmv" value="146363844082616779" />
                </node>
              </node>
            </node>
            <node concept="cd27G" id="m" role="lGtFl">
              <node concept="3u3nmq" id="_" role="cd27D">
                <property role="3u3nmv" value="146363844082616779" />
              </node>
            </node>
          </node>
          <node concept="cd27G" id="k" role="lGtFl">
            <node concept="3u3nmq" id="A" role="cd27D">
              <property role="3u3nmv" value="146363844082616779" />
            </node>
          </node>
        </node>
        <node concept="cd27G" id="i" role="lGtFl">
          <node concept="3u3nmq" id="B" role="cd27D">
            <property role="3u3nmv" value="146363844082616779" />
          </node>
        </node>
      </node>
      <node concept="3Tm1VV" id="d" role="1B3o_S">
        <node concept="cd27G" id="C" role="lGtFl">
          <node concept="3u3nmq" id="D" role="cd27D">
            <property role="3u3nmv" value="146363844082616779" />
          </node>
        </node>
      </node>
      <node concept="cd27G" id="e" role="lGtFl">
        <node concept="3u3nmq" id="E" role="cd27D">
          <property role="3u3nmv" value="146363844082616779" />
        </node>
      </node>
    </node>
    <node concept="2tJIrI" id="4" role="jymVt">
      <node concept="cd27G" id="F" role="lGtFl">
        <node concept="3u3nmq" id="G" role="cd27D">
          <property role="3u3nmv" value="146363844082616779" />
        </node>
      </node>
    </node>
    <node concept="3clFb_" id="5" role="jymVt">
      <property role="1EzhhJ" value="false" />
      <property role="TrG5h" value="getSpecifiedReferences" />
      <property role="DiZV1" value="false" />
      <node concept="3Tmbuc" id="H" role="1B3o_S">
        <node concept="cd27G" id="M" role="lGtFl">
          <node concept="3u3nmq" id="N" role="cd27D">
            <property role="3u3nmv" value="146363844082616779" />
          </node>
        </node>
      </node>
      <node concept="3uibUv" id="I" role="3clF45">
        <ref role="3uigEE" to="33ny:~Map" resolve="Map" />
        <node concept="3uibUv" id="O" role="11_B2D">
          <ref role="3uigEE" to="c17a:~SReferenceLink" resolve="SReferenceLink" />
          <node concept="cd27G" id="R" role="lGtFl">
            <node concept="3u3nmq" id="S" role="cd27D">
              <property role="3u3nmv" value="146363844082616779" />
            </node>
          </node>
        </node>
        <node concept="3uibUv" id="P" role="11_B2D">
          <ref role="3uigEE" to="ze1i:~ReferenceConstraintsDescriptor" resolve="ReferenceConstraintsDescriptor" />
          <node concept="cd27G" id="T" role="lGtFl">
            <node concept="3u3nmq" id="U" role="cd27D">
              <property role="3u3nmv" value="146363844082616779" />
            </node>
          </node>
        </node>
        <node concept="cd27G" id="Q" role="lGtFl">
          <node concept="3u3nmq" id="V" role="cd27D">
            <property role="3u3nmv" value="146363844082616779" />
          </node>
        </node>
      </node>
      <node concept="3clFbS" id="J" role="3clF47">
        <node concept="3cpWs8" id="W" role="3cqZAp">
          <node concept="3cpWsn" id="11" role="3cpWs9">
            <property role="TrG5h" value="d0" />
            <node concept="3uibUv" id="13" role="1tU5fm">
              <ref role="3uigEE" to="79pl:~BaseReferenceConstraintsDescriptor" resolve="BaseReferenceConstraintsDescriptor" />
              <node concept="cd27G" id="16" role="lGtFl">
                <node concept="3u3nmq" id="17" role="cd27D">
                  <property role="3u3nmv" value="146363844082616779" />
                </node>
              </node>
            </node>
            <node concept="2ShNRf" id="14" role="33vP2m">
              <node concept="YeOm9" id="18" role="2ShVmc">
                <node concept="1Y3b0j" id="1a" role="YeSDq">
                  <property role="2bfB8j" value="true" />
                  <ref role="1Y3XeK" to="79pl:~BaseReferenceConstraintsDescriptor" resolve="BaseReferenceConstraintsDescriptor" />
                  <ref role="37wK5l" to="79pl:~BaseReferenceConstraintsDescriptor.&lt;init&gt;(org.jetbrains.mps.openapi.language.SReferenceLink,jetbrains.mps.smodel.runtime.ConstraintsDescriptor)" resolve="BaseReferenceConstraintsDescriptor" />
                  <node concept="1BaE9c" id="1c" role="37wK5m">
                    <property role="1ouuDV" value="LINKS" />
                    <property role="1BaxDp" value="person$9w4b" />
                    <node concept="2YIFZM" id="1i" role="1Bazha">
                      <ref role="37wK5l" to="2k9e:~MetaAdapterFactory.getReferenceLink(long,long,long,long,java.lang.String)" resolve="getReferenceLink" />
                      <ref role="1Pybhc" to="2k9e:~MetaAdapterFactory" resolve="MetaAdapterFactory" />
                      <node concept="1adDum" id="1k" role="37wK5m">
                        <property role="1adDun" value="0x82d3691319404be3L" />
                        <node concept="cd27G" id="1q" role="lGtFl">
                          <node concept="3u3nmq" id="1r" role="cd27D">
                            <property role="3u3nmv" value="146363844082616779" />
                          </node>
                        </node>
                      </node>
                      <node concept="1adDum" id="1l" role="37wK5m">
                        <property role="1adDun" value="0xbd33efbc4c3fcff0L" />
                        <node concept="cd27G" id="1s" role="lGtFl">
                          <node concept="3u3nmq" id="1t" role="cd27D">
                            <property role="3u3nmv" value="146363844082616779" />
                          </node>
                        </node>
                      </node>
                      <node concept="1adDum" id="1m" role="37wK5m">
                        <property role="1adDun" value="0x35aa893613d08097L" />
                        <node concept="cd27G" id="1u" role="lGtFl">
                          <node concept="3u3nmq" id="1v" role="cd27D">
                            <property role="3u3nmv" value="146363844082616779" />
                          </node>
                        </node>
                      </node>
                      <node concept="1adDum" id="1n" role="37wK5m">
                        <property role="1adDun" value="0x1caf64abd14528f3L" />
                        <node concept="cd27G" id="1w" role="lGtFl">
                          <node concept="3u3nmq" id="1x" role="cd27D">
                            <property role="3u3nmv" value="146363844082616779" />
                          </node>
                        </node>
                      </node>
                      <node concept="Xl_RD" id="1o" role="37wK5m">
                        <property role="Xl_RC" value="person" />
                        <node concept="cd27G" id="1y" role="lGtFl">
                          <node concept="3u3nmq" id="1z" role="cd27D">
                            <property role="3u3nmv" value="146363844082616779" />
                          </node>
                        </node>
                      </node>
                      <node concept="cd27G" id="1p" role="lGtFl">
                        <node concept="3u3nmq" id="1$" role="cd27D">
                          <property role="3u3nmv" value="146363844082616779" />
                        </node>
                      </node>
                    </node>
                    <node concept="cd27G" id="1j" role="lGtFl">
                      <node concept="3u3nmq" id="1_" role="cd27D">
                        <property role="3u3nmv" value="146363844082616779" />
                      </node>
                    </node>
                  </node>
                  <node concept="3Tm1VV" id="1d" role="1B3o_S">
                    <node concept="cd27G" id="1A" role="lGtFl">
                      <node concept="3u3nmq" id="1B" role="cd27D">
                        <property role="3u3nmv" value="146363844082616779" />
                      </node>
                    </node>
                  </node>
                  <node concept="Xjq3P" id="1e" role="37wK5m">
                    <node concept="cd27G" id="1C" role="lGtFl">
                      <node concept="3u3nmq" id="1D" role="cd27D">
                        <property role="3u3nmv" value="146363844082616779" />
                      </node>
                    </node>
                  </node>
                  <node concept="3clFb_" id="1f" role="jymVt">
                    <property role="1EzhhJ" value="false" />
                    <property role="TrG5h" value="hasOwnScopeProvider" />
                    <property role="DiZV1" value="false" />
                    <node concept="3Tm1VV" id="1E" role="1B3o_S">
                      <node concept="cd27G" id="1J" role="lGtFl">
                        <node concept="3u3nmq" id="1K" role="cd27D">
                          <property role="3u3nmv" value="146363844082616779" />
                        </node>
                      </node>
                    </node>
                    <node concept="10P_77" id="1F" role="3clF45">
                      <node concept="cd27G" id="1L" role="lGtFl">
                        <node concept="3u3nmq" id="1M" role="cd27D">
                          <property role="3u3nmv" value="146363844082616779" />
                        </node>
                      </node>
                    </node>
                    <node concept="3clFbS" id="1G" role="3clF47">
                      <node concept="3clFbF" id="1N" role="3cqZAp">
                        <node concept="3clFbT" id="1P" role="3clFbG">
                          <property role="3clFbU" value="true" />
                          <node concept="cd27G" id="1R" role="lGtFl">
                            <node concept="3u3nmq" id="1S" role="cd27D">
                              <property role="3u3nmv" value="146363844082616779" />
                            </node>
                          </node>
                        </node>
                        <node concept="cd27G" id="1Q" role="lGtFl">
                          <node concept="3u3nmq" id="1T" role="cd27D">
                            <property role="3u3nmv" value="146363844082616779" />
                          </node>
                        </node>
                      </node>
                      <node concept="cd27G" id="1O" role="lGtFl">
                        <node concept="3u3nmq" id="1U" role="cd27D">
                          <property role="3u3nmv" value="146363844082616779" />
                        </node>
                      </node>
                    </node>
                    <node concept="2AHcQZ" id="1H" role="2AJF6D">
                      <ref role="2AI5Lk" to="wyt6:~Override" resolve="Override" />
                      <node concept="cd27G" id="1V" role="lGtFl">
                        <node concept="3u3nmq" id="1W" role="cd27D">
                          <property role="3u3nmv" value="146363844082616779" />
                        </node>
                      </node>
                    </node>
                    <node concept="cd27G" id="1I" role="lGtFl">
                      <node concept="3u3nmq" id="1X" role="cd27D">
                        <property role="3u3nmv" value="146363844082616779" />
                      </node>
                    </node>
                  </node>
                  <node concept="3clFb_" id="1g" role="jymVt">
                    <property role="1EzhhJ" value="false" />
                    <property role="TrG5h" value="getScopeProvider" />
                    <property role="DiZV1" value="false" />
                    <node concept="3Tm1VV" id="1Y" role="1B3o_S">
                      <node concept="cd27G" id="24" role="lGtFl">
                        <node concept="3u3nmq" id="25" role="cd27D">
                          <property role="3u3nmv" value="146363844082616779" />
                        </node>
                      </node>
                    </node>
                    <node concept="3uibUv" id="1Z" role="3clF45">
                      <ref role="3uigEE" to="ze1i:~ReferenceScopeProvider" resolve="ReferenceScopeProvider" />
                      <node concept="cd27G" id="26" role="lGtFl">
                        <node concept="3u3nmq" id="27" role="cd27D">
                          <property role="3u3nmv" value="146363844082616779" />
                        </node>
                      </node>
                    </node>
                    <node concept="2AHcQZ" id="20" role="2AJF6D">
                      <ref role="2AI5Lk" to="mhfm:~Nullable" resolve="Nullable" />
                      <node concept="cd27G" id="28" role="lGtFl">
                        <node concept="3u3nmq" id="29" role="cd27D">
                          <property role="3u3nmv" value="146363844082616779" />
                        </node>
                      </node>
                    </node>
                    <node concept="3clFbS" id="21" role="3clF47">
                      <node concept="3cpWs6" id="2a" role="3cqZAp">
                        <node concept="2ShNRf" id="2c" role="3cqZAk">
                          <node concept="YeOm9" id="2e" role="2ShVmc">
                            <node concept="1Y3b0j" id="2g" role="YeSDq">
                              <property role="2bfB8j" value="true" />
                              <ref role="1Y3XeK" to="79pl:~BaseScopeProvider" resolve="BaseScopeProvider" />
                              <ref role="37wK5l" to="79pl:~BaseScopeProvider.&lt;init&gt;()" resolve="BaseScopeProvider" />
                              <node concept="3Tm1VV" id="2i" role="1B3o_S">
                                <node concept="cd27G" id="2m" role="lGtFl">
                                  <node concept="3u3nmq" id="2n" role="cd27D">
                                    <property role="3u3nmv" value="146363844082616779" />
                                  </node>
                                </node>
                              </node>
                              <node concept="3clFb_" id="2j" role="jymVt">
                                <property role="TrG5h" value="getSearchScopeValidatorNode" />
                                <node concept="3Tm1VV" id="2o" role="1B3o_S">
                                  <node concept="cd27G" id="2t" role="lGtFl">
                                    <node concept="3u3nmq" id="2u" role="cd27D">
                                      <property role="3u3nmv" value="146363844082616779" />
                                    </node>
                                  </node>
                                </node>
                                <node concept="3clFbS" id="2p" role="3clF47">
                                  <node concept="3cpWs6" id="2v" role="3cqZAp">
                                    <node concept="1dyn4i" id="2x" role="3cqZAk">
                                      <property role="1zomUR" value="true" />
                                      <property role="1dyqJU" value="breakingNode" />
                                      <node concept="2ShNRf" id="2z" role="1dyrYi">
                                        <node concept="1pGfFk" id="2_" role="2ShVmc">
                                          <ref role="37wK5l" to="w1kc:~SNodePointer.&lt;init&gt;(java.lang.String,java.lang.String)" resolve="SNodePointer" />
                                          <node concept="Xl_RD" id="2B" role="37wK5m">
                                            <property role="Xl_RC" value="r:a2a7e978-bf89-4681-b70e-c3b54a2ecc58(Bibliography.constraints)" />
                                            <node concept="cd27G" id="2E" role="lGtFl">
                                              <node concept="3u3nmq" id="2F" role="cd27D">
                                                <property role="3u3nmv" value="146363844082616779" />
                                              </node>
                                            </node>
                                          </node>
                                          <node concept="Xl_RD" id="2C" role="37wK5m">
                                            <property role="Xl_RC" value="146363844082616833" />
                                            <node concept="cd27G" id="2G" role="lGtFl">
                                              <node concept="3u3nmq" id="2H" role="cd27D">
                                                <property role="3u3nmv" value="146363844082616779" />
                                              </node>
                                            </node>
                                          </node>
                                          <node concept="cd27G" id="2D" role="lGtFl">
                                            <node concept="3u3nmq" id="2I" role="cd27D">
                                              <property role="3u3nmv" value="146363844082616779" />
                                            </node>
                                          </node>
                                        </node>
                                        <node concept="cd27G" id="2A" role="lGtFl">
                                          <node concept="3u3nmq" id="2J" role="cd27D">
                                            <property role="3u3nmv" value="146363844082616779" />
                                          </node>
                                        </node>
                                      </node>
                                      <node concept="cd27G" id="2$" role="lGtFl">
                                        <node concept="3u3nmq" id="2K" role="cd27D">
                                          <property role="3u3nmv" value="146363844082616779" />
                                        </node>
                                      </node>
                                    </node>
                                    <node concept="cd27G" id="2y" role="lGtFl">
                                      <node concept="3u3nmq" id="2L" role="cd27D">
                                        <property role="3u3nmv" value="146363844082616779" />
                                      </node>
                                    </node>
                                  </node>
                                  <node concept="cd27G" id="2w" role="lGtFl">
                                    <node concept="3u3nmq" id="2M" role="cd27D">
                                      <property role="3u3nmv" value="146363844082616779" />
                                    </node>
                                  </node>
                                </node>
                                <node concept="3uibUv" id="2q" role="3clF45">
                                  <ref role="3uigEE" to="mhbf:~SNodeReference" resolve="SNodeReference" />
                                  <node concept="cd27G" id="2N" role="lGtFl">
                                    <node concept="3u3nmq" id="2O" role="cd27D">
                                      <property role="3u3nmv" value="146363844082616779" />
                                    </node>
                                  </node>
                                </node>
                                <node concept="2AHcQZ" id="2r" role="2AJF6D">
                                  <ref role="2AI5Lk" to="wyt6:~Override" resolve="Override" />
                                  <node concept="cd27G" id="2P" role="lGtFl">
                                    <node concept="3u3nmq" id="2Q" role="cd27D">
                                      <property role="3u3nmv" value="146363844082616779" />
                                    </node>
                                  </node>
                                </node>
                                <node concept="cd27G" id="2s" role="lGtFl">
                                  <node concept="3u3nmq" id="2R" role="cd27D">
                                    <property role="3u3nmv" value="146363844082616779" />
                                  </node>
                                </node>
                              </node>
                              <node concept="3clFb_" id="2k" role="jymVt">
                                <property role="1EzhhJ" value="false" />
                                <property role="TrG5h" value="createScope" />
                                <property role="DiZV1" value="false" />
                                <node concept="37vLTG" id="2S" role="3clF46">
                                  <property role="TrG5h" value="_context" />
                                  <property role="3TUv4t" value="true" />
                                  <node concept="3uibUv" id="2Y" role="1tU5fm">
                                    <ref role="3uigEE" to="ze1i:~ReferenceConstraintsContext" resolve="ReferenceConstraintsContext" />
                                    <node concept="cd27G" id="30" role="lGtFl">
                                      <node concept="3u3nmq" id="31" role="cd27D">
                                        <property role="3u3nmv" value="146363844082616779" />
                                      </node>
                                    </node>
                                  </node>
                                  <node concept="cd27G" id="2Z" role="lGtFl">
                                    <node concept="3u3nmq" id="32" role="cd27D">
                                      <property role="3u3nmv" value="146363844082616779" />
                                    </node>
                                  </node>
                                </node>
                                <node concept="3Tm1VV" id="2T" role="1B3o_S">
                                  <node concept="cd27G" id="33" role="lGtFl">
                                    <node concept="3u3nmq" id="34" role="cd27D">
                                      <property role="3u3nmv" value="146363844082616779" />
                                    </node>
                                  </node>
                                </node>
                                <node concept="3uibUv" id="2U" role="3clF45">
                                  <ref role="3uigEE" to="35tq:~Scope" resolve="Scope" />
                                  <node concept="cd27G" id="35" role="lGtFl">
                                    <node concept="3u3nmq" id="36" role="cd27D">
                                      <property role="3u3nmv" value="146363844082616779" />
                                    </node>
                                  </node>
                                </node>
                                <node concept="3clFbS" id="2V" role="3clF47">
                                  <node concept="3cpWs8" id="37" role="3cqZAp">
                                    <node concept="3cpWsn" id="3a" role="3cpWs9">
                                      <property role="TrG5h" value="scope" />
                                      <node concept="3uibUv" id="3c" role="1tU5fm">
                                        <ref role="3uigEE" to="35tq:~Scope" resolve="Scope" />
                                        <node concept="cd27G" id="3f" role="lGtFl">
                                          <node concept="3u3nmq" id="3g" role="cd27D">
                                            <property role="3u3nmv" value="146363844082616833" />
                                          </node>
                                        </node>
                                      </node>
                                      <node concept="2YIFZM" id="3d" role="33vP2m">
                                        <ref role="1Pybhc" to="35tq:~Scope" resolve="Scope" />
                                        <ref role="37wK5l" to="35tq:~Scope.getScope(org.jetbrains.mps.openapi.model.SNode,org.jetbrains.mps.openapi.language.SContainmentLink,int,org.jetbrains.mps.openapi.language.SAbstractConcept)" resolve="getScope" />
                                        <node concept="2OqwBi" id="3h" role="37wK5m">
                                          <node concept="37vLTw" id="3m" role="2Oq$k0">
                                            <ref role="3cqZAo" node="2S" resolve="_context" />
                                            <node concept="cd27G" id="3p" role="lGtFl">
                                              <node concept="3u3nmq" id="3q" role="cd27D">
                                                <property role="3u3nmv" value="146363844082616833" />
                                              </node>
                                            </node>
                                          </node>
                                          <node concept="liA8E" id="3n" role="2OqNvi">
                                            <ref role="37wK5l" to="ze1i:~ReferenceConstraintsContext.getContextNode()" resolve="getContextNode" />
                                            <node concept="cd27G" id="3r" role="lGtFl">
                                              <node concept="3u3nmq" id="3s" role="cd27D">
                                                <property role="3u3nmv" value="146363844082616833" />
                                              </node>
                                            </node>
                                          </node>
                                          <node concept="cd27G" id="3o" role="lGtFl">
                                            <node concept="3u3nmq" id="3t" role="cd27D">
                                              <property role="3u3nmv" value="146363844082616833" />
                                            </node>
                                          </node>
                                        </node>
                                        <node concept="2OqwBi" id="3i" role="37wK5m">
                                          <node concept="liA8E" id="3u" role="2OqNvi">
                                            <ref role="37wK5l" to="ze1i:~ReferenceConstraintsContext.getContainmentLink()" resolve="getContainmentLink" />
                                            <node concept="cd27G" id="3x" role="lGtFl">
                                              <node concept="3u3nmq" id="3y" role="cd27D">
                                                <property role="3u3nmv" value="146363844082616833" />
                                              </node>
                                            </node>
                                          </node>
                                          <node concept="37vLTw" id="3v" role="2Oq$k0">
                                            <ref role="3cqZAo" node="2S" resolve="_context" />
                                            <node concept="cd27G" id="3z" role="lGtFl">
                                              <node concept="3u3nmq" id="3$" role="cd27D">
                                                <property role="3u3nmv" value="146363844082616833" />
                                              </node>
                                            </node>
                                          </node>
                                          <node concept="cd27G" id="3w" role="lGtFl">
                                            <node concept="3u3nmq" id="3_" role="cd27D">
                                              <property role="3u3nmv" value="146363844082616833" />
                                            </node>
                                          </node>
                                        </node>
                                        <node concept="2OqwBi" id="3j" role="37wK5m">
                                          <node concept="37vLTw" id="3A" role="2Oq$k0">
                                            <ref role="3cqZAo" node="2S" resolve="_context" />
                                            <node concept="cd27G" id="3D" role="lGtFl">
                                              <node concept="3u3nmq" id="3E" role="cd27D">
                                                <property role="3u3nmv" value="146363844082616833" />
                                              </node>
                                            </node>
                                          </node>
                                          <node concept="liA8E" id="3B" role="2OqNvi">
                                            <ref role="37wK5l" to="ze1i:~ReferenceConstraintsContext.getPosition()" resolve="getPosition" />
                                            <node concept="cd27G" id="3F" role="lGtFl">
                                              <node concept="3u3nmq" id="3G" role="cd27D">
                                                <property role="3u3nmv" value="146363844082616833" />
                                              </node>
                                            </node>
                                          </node>
                                          <node concept="cd27G" id="3C" role="lGtFl">
                                            <node concept="3u3nmq" id="3H" role="cd27D">
                                              <property role="3u3nmv" value="146363844082616833" />
                                            </node>
                                          </node>
                                        </node>
                                        <node concept="35c_gC" id="3k" role="37wK5m">
                                          <ref role="35c_gD" to="u5vo:3mEyjojO2A1" resolve="Person" />
                                          <node concept="cd27G" id="3I" role="lGtFl">
                                            <node concept="3u3nmq" id="3J" role="cd27D">
                                              <property role="3u3nmv" value="146363844082616833" />
                                            </node>
                                          </node>
                                        </node>
                                        <node concept="cd27G" id="3l" role="lGtFl">
                                          <node concept="3u3nmq" id="3K" role="cd27D">
                                            <property role="3u3nmv" value="146363844082616833" />
                                          </node>
                                        </node>
                                      </node>
                                      <node concept="cd27G" id="3e" role="lGtFl">
                                        <node concept="3u3nmq" id="3L" role="cd27D">
                                          <property role="3u3nmv" value="146363844082616833" />
                                        </node>
                                      </node>
                                    </node>
                                    <node concept="cd27G" id="3b" role="lGtFl">
                                      <node concept="3u3nmq" id="3M" role="cd27D">
                                        <property role="3u3nmv" value="146363844082616833" />
                                      </node>
                                    </node>
                                  </node>
                                  <node concept="3cpWs6" id="38" role="3cqZAp">
                                    <node concept="3K4zz7" id="3N" role="3cqZAk">
                                      <node concept="2ShNRf" id="3P" role="3K4E3e">
                                        <node concept="1pGfFk" id="3T" role="2ShVmc">
                                          <ref role="37wK5l" to="35tq:~EmptyScope.&lt;init&gt;()" resolve="EmptyScope" />
                                          <node concept="cd27G" id="3V" role="lGtFl">
                                            <node concept="3u3nmq" id="3W" role="cd27D">
                                              <property role="3u3nmv" value="146363844082616833" />
                                            </node>
                                          </node>
                                        </node>
                                        <node concept="cd27G" id="3U" role="lGtFl">
                                          <node concept="3u3nmq" id="3X" role="cd27D">
                                            <property role="3u3nmv" value="146363844082616833" />
                                          </node>
                                        </node>
                                      </node>
                                      <node concept="37vLTw" id="3Q" role="3K4GZi">
                                        <ref role="3cqZAo" node="3a" resolve="scope" />
                                        <node concept="cd27G" id="3Y" role="lGtFl">
                                          <node concept="3u3nmq" id="3Z" role="cd27D">
                                            <property role="3u3nmv" value="146363844082616833" />
                                          </node>
                                        </node>
                                      </node>
                                      <node concept="3clFbC" id="3R" role="3K4Cdx">
                                        <node concept="10Nm6u" id="40" role="3uHU7w">
                                          <node concept="cd27G" id="43" role="lGtFl">
                                            <node concept="3u3nmq" id="44" role="cd27D">
                                              <property role="3u3nmv" value="146363844082616833" />
                                            </node>
                                          </node>
                                        </node>
                                        <node concept="37vLTw" id="41" role="3uHU7B">
                                          <ref role="3cqZAo" node="3a" resolve="scope" />
                                          <node concept="cd27G" id="45" role="lGtFl">
                                            <node concept="3u3nmq" id="46" role="cd27D">
                                              <property role="3u3nmv" value="146363844082616833" />
                                            </node>
                                          </node>
                                        </node>
                                        <node concept="cd27G" id="42" role="lGtFl">
                                          <node concept="3u3nmq" id="47" role="cd27D">
                                            <property role="3u3nmv" value="146363844082616833" />
                                          </node>
                                        </node>
                                      </node>
                                      <node concept="cd27G" id="3S" role="lGtFl">
                                        <node concept="3u3nmq" id="48" role="cd27D">
                                          <property role="3u3nmv" value="146363844082616833" />
                                        </node>
                                      </node>
                                    </node>
                                    <node concept="cd27G" id="3O" role="lGtFl">
                                      <node concept="3u3nmq" id="49" role="cd27D">
                                        <property role="3u3nmv" value="146363844082616833" />
                                      </node>
                                    </node>
                                  </node>
                                  <node concept="cd27G" id="39" role="lGtFl">
                                    <node concept="3u3nmq" id="4a" role="cd27D">
                                      <property role="3u3nmv" value="146363844082616779" />
                                    </node>
                                  </node>
                                </node>
                                <node concept="2AHcQZ" id="2W" role="2AJF6D">
                                  <ref role="2AI5Lk" to="wyt6:~Override" resolve="Override" />
                                  <node concept="cd27G" id="4b" role="lGtFl">
                                    <node concept="3u3nmq" id="4c" role="cd27D">
                                      <property role="3u3nmv" value="146363844082616779" />
                                    </node>
                                  </node>
                                </node>
                                <node concept="cd27G" id="2X" role="lGtFl">
                                  <node concept="3u3nmq" id="4d" role="cd27D">
                                    <property role="3u3nmv" value="146363844082616779" />
                                  </node>
                                </node>
                              </node>
                              <node concept="cd27G" id="2l" role="lGtFl">
                                <node concept="3u3nmq" id="4e" role="cd27D">
                                  <property role="3u3nmv" value="146363844082616779" />
                                </node>
                              </node>
                            </node>
                            <node concept="cd27G" id="2h" role="lGtFl">
                              <node concept="3u3nmq" id="4f" role="cd27D">
                                <property role="3u3nmv" value="146363844082616779" />
                              </node>
                            </node>
                          </node>
                          <node concept="cd27G" id="2f" role="lGtFl">
                            <node concept="3u3nmq" id="4g" role="cd27D">
                              <property role="3u3nmv" value="146363844082616779" />
                            </node>
                          </node>
                        </node>
                        <node concept="cd27G" id="2d" role="lGtFl">
                          <node concept="3u3nmq" id="4h" role="cd27D">
                            <property role="3u3nmv" value="146363844082616779" />
                          </node>
                        </node>
                      </node>
                      <node concept="cd27G" id="2b" role="lGtFl">
                        <node concept="3u3nmq" id="4i" role="cd27D">
                          <property role="3u3nmv" value="146363844082616779" />
                        </node>
                      </node>
                    </node>
                    <node concept="2AHcQZ" id="22" role="2AJF6D">
                      <ref role="2AI5Lk" to="wyt6:~Override" resolve="Override" />
                      <node concept="cd27G" id="4j" role="lGtFl">
                        <node concept="3u3nmq" id="4k" role="cd27D">
                          <property role="3u3nmv" value="146363844082616779" />
                        </node>
                      </node>
                    </node>
                    <node concept="cd27G" id="23" role="lGtFl">
                      <node concept="3u3nmq" id="4l" role="cd27D">
                        <property role="3u3nmv" value="146363844082616779" />
                      </node>
                    </node>
                  </node>
                  <node concept="cd27G" id="1h" role="lGtFl">
                    <node concept="3u3nmq" id="4m" role="cd27D">
                      <property role="3u3nmv" value="146363844082616779" />
                    </node>
                  </node>
                </node>
                <node concept="cd27G" id="1b" role="lGtFl">
                  <node concept="3u3nmq" id="4n" role="cd27D">
                    <property role="3u3nmv" value="146363844082616779" />
                  </node>
                </node>
              </node>
              <node concept="cd27G" id="19" role="lGtFl">
                <node concept="3u3nmq" id="4o" role="cd27D">
                  <property role="3u3nmv" value="146363844082616779" />
                </node>
              </node>
            </node>
            <node concept="cd27G" id="15" role="lGtFl">
              <node concept="3u3nmq" id="4p" role="cd27D">
                <property role="3u3nmv" value="146363844082616779" />
              </node>
            </node>
          </node>
          <node concept="cd27G" id="12" role="lGtFl">
            <node concept="3u3nmq" id="4q" role="cd27D">
              <property role="3u3nmv" value="146363844082616779" />
            </node>
          </node>
        </node>
        <node concept="3cpWs8" id="X" role="3cqZAp">
          <node concept="3cpWsn" id="4r" role="3cpWs9">
            <property role="TrG5h" value="references" />
            <node concept="3uibUv" id="4t" role="1tU5fm">
              <ref role="3uigEE" to="33ny:~Map" resolve="Map" />
              <node concept="3uibUv" id="4w" role="11_B2D">
                <ref role="3uigEE" to="c17a:~SReferenceLink" resolve="SReferenceLink" />
                <node concept="cd27G" id="4z" role="lGtFl">
                  <node concept="3u3nmq" id="4$" role="cd27D">
                    <property role="3u3nmv" value="146363844082616779" />
                  </node>
                </node>
              </node>
              <node concept="3uibUv" id="4x" role="11_B2D">
                <ref role="3uigEE" to="ze1i:~ReferenceConstraintsDescriptor" resolve="ReferenceConstraintsDescriptor" />
                <node concept="cd27G" id="4_" role="lGtFl">
                  <node concept="3u3nmq" id="4A" role="cd27D">
                    <property role="3u3nmv" value="146363844082616779" />
                  </node>
                </node>
              </node>
              <node concept="cd27G" id="4y" role="lGtFl">
                <node concept="3u3nmq" id="4B" role="cd27D">
                  <property role="3u3nmv" value="146363844082616779" />
                </node>
              </node>
            </node>
            <node concept="2ShNRf" id="4u" role="33vP2m">
              <node concept="1pGfFk" id="4C" role="2ShVmc">
                <ref role="37wK5l" to="33ny:~HashMap.&lt;init&gt;()" resolve="HashMap" />
                <node concept="3uibUv" id="4E" role="1pMfVU">
                  <ref role="3uigEE" to="c17a:~SReferenceLink" resolve="SReferenceLink" />
                  <node concept="cd27G" id="4H" role="lGtFl">
                    <node concept="3u3nmq" id="4I" role="cd27D">
                      <property role="3u3nmv" value="146363844082616779" />
                    </node>
                  </node>
                </node>
                <node concept="3uibUv" id="4F" role="1pMfVU">
                  <ref role="3uigEE" to="ze1i:~ReferenceConstraintsDescriptor" resolve="ReferenceConstraintsDescriptor" />
                  <node concept="cd27G" id="4J" role="lGtFl">
                    <node concept="3u3nmq" id="4K" role="cd27D">
                      <property role="3u3nmv" value="146363844082616779" />
                    </node>
                  </node>
                </node>
                <node concept="cd27G" id="4G" role="lGtFl">
                  <node concept="3u3nmq" id="4L" role="cd27D">
                    <property role="3u3nmv" value="146363844082616779" />
                  </node>
                </node>
              </node>
              <node concept="cd27G" id="4D" role="lGtFl">
                <node concept="3u3nmq" id="4M" role="cd27D">
                  <property role="3u3nmv" value="146363844082616779" />
                </node>
              </node>
            </node>
            <node concept="cd27G" id="4v" role="lGtFl">
              <node concept="3u3nmq" id="4N" role="cd27D">
                <property role="3u3nmv" value="146363844082616779" />
              </node>
            </node>
          </node>
          <node concept="cd27G" id="4s" role="lGtFl">
            <node concept="3u3nmq" id="4O" role="cd27D">
              <property role="3u3nmv" value="146363844082616779" />
            </node>
          </node>
        </node>
        <node concept="3clFbF" id="Y" role="3cqZAp">
          <node concept="2OqwBi" id="4P" role="3clFbG">
            <node concept="37vLTw" id="4R" role="2Oq$k0">
              <ref role="3cqZAo" node="4r" resolve="references" />
              <node concept="cd27G" id="4U" role="lGtFl">
                <node concept="3u3nmq" id="4V" role="cd27D">
                  <property role="3u3nmv" value="146363844082616779" />
                </node>
              </node>
            </node>
            <node concept="liA8E" id="4S" role="2OqNvi">
              <ref role="37wK5l" to="33ny:~Map.put(java.lang.Object,java.lang.Object)" resolve="put" />
              <node concept="2OqwBi" id="4W" role="37wK5m">
                <node concept="37vLTw" id="4Z" role="2Oq$k0">
                  <ref role="3cqZAo" node="11" resolve="d0" />
                  <node concept="cd27G" id="52" role="lGtFl">
                    <node concept="3u3nmq" id="53" role="cd27D">
                      <property role="3u3nmv" value="146363844082616779" />
                    </node>
                  </node>
                </node>
                <node concept="liA8E" id="50" role="2OqNvi">
                  <ref role="37wK5l" to="79pl:~BaseReferenceConstraintsDescriptor.getReference()" resolve="getReference" />
                  <node concept="cd27G" id="54" role="lGtFl">
                    <node concept="3u3nmq" id="55" role="cd27D">
                      <property role="3u3nmv" value="146363844082616779" />
                    </node>
                  </node>
                </node>
                <node concept="cd27G" id="51" role="lGtFl">
                  <node concept="3u3nmq" id="56" role="cd27D">
                    <property role="3u3nmv" value="146363844082616779" />
                  </node>
                </node>
              </node>
              <node concept="37vLTw" id="4X" role="37wK5m">
                <ref role="3cqZAo" node="11" resolve="d0" />
                <node concept="cd27G" id="57" role="lGtFl">
                  <node concept="3u3nmq" id="58" role="cd27D">
                    <property role="3u3nmv" value="146363844082616779" />
                  </node>
                </node>
              </node>
              <node concept="cd27G" id="4Y" role="lGtFl">
                <node concept="3u3nmq" id="59" role="cd27D">
                  <property role="3u3nmv" value="146363844082616779" />
                </node>
              </node>
            </node>
            <node concept="cd27G" id="4T" role="lGtFl">
              <node concept="3u3nmq" id="5a" role="cd27D">
                <property role="3u3nmv" value="146363844082616779" />
              </node>
            </node>
          </node>
          <node concept="cd27G" id="4Q" role="lGtFl">
            <node concept="3u3nmq" id="5b" role="cd27D">
              <property role="3u3nmv" value="146363844082616779" />
            </node>
          </node>
        </node>
        <node concept="3clFbF" id="Z" role="3cqZAp">
          <node concept="37vLTw" id="5c" role="3clFbG">
            <ref role="3cqZAo" node="4r" resolve="references" />
            <node concept="cd27G" id="5e" role="lGtFl">
              <node concept="3u3nmq" id="5f" role="cd27D">
                <property role="3u3nmv" value="146363844082616779" />
              </node>
            </node>
          </node>
          <node concept="cd27G" id="5d" role="lGtFl">
            <node concept="3u3nmq" id="5g" role="cd27D">
              <property role="3u3nmv" value="146363844082616779" />
            </node>
          </node>
        </node>
        <node concept="cd27G" id="10" role="lGtFl">
          <node concept="3u3nmq" id="5h" role="cd27D">
            <property role="3u3nmv" value="146363844082616779" />
          </node>
        </node>
      </node>
      <node concept="2AHcQZ" id="K" role="2AJF6D">
        <ref role="2AI5Lk" to="wyt6:~Override" resolve="Override" />
        <node concept="cd27G" id="5i" role="lGtFl">
          <node concept="3u3nmq" id="5j" role="cd27D">
            <property role="3u3nmv" value="146363844082616779" />
          </node>
        </node>
      </node>
      <node concept="cd27G" id="L" role="lGtFl">
        <node concept="3u3nmq" id="5k" role="cd27D">
          <property role="3u3nmv" value="146363844082616779" />
        </node>
      </node>
    </node>
    <node concept="cd27G" id="6" role="lGtFl">
      <node concept="3u3nmq" id="5l" role="cd27D">
        <property role="3u3nmv" value="146363844082616779" />
      </node>
    </node>
  </node>
  <node concept="312cEu" id="5m">
    <property role="TrG5h" value="ConstraintsAspectDescriptor" />
    <property role="3GE5qa" value="Constraints" />
    <node concept="3uibUv" id="5n" role="1zkMxy">
      <ref role="3uigEE" to="ze1i:~BaseConstraintsAspectDescriptor" resolve="BaseConstraintsAspectDescriptor" />
    </node>
    <node concept="3Tm1VV" id="5o" role="1B3o_S" />
    <node concept="3clFbW" id="5p" role="jymVt">
      <node concept="3cqZAl" id="5s" role="3clF45" />
      <node concept="3Tm1VV" id="5t" role="1B3o_S" />
      <node concept="3clFbS" id="5u" role="3clF47" />
    </node>
    <node concept="2tJIrI" id="5q" role="jymVt" />
    <node concept="3clFb_" id="5r" role="jymVt">
      <property role="1EzhhJ" value="false" />
      <property role="TrG5h" value="getConstraints" />
      <property role="DiZV1" value="false" />
      <node concept="2AHcQZ" id="5v" role="2AJF6D">
        <ref role="2AI5Lk" to="wyt6:~Override" resolve="Override" />
      </node>
      <node concept="3Tm1VV" id="5w" role="1B3o_S" />
      <node concept="3uibUv" id="5x" role="3clF45">
        <ref role="3uigEE" to="ze1i:~ConstraintsDescriptor" resolve="ConstraintsDescriptor" />
      </node>
      <node concept="37vLTG" id="5y" role="3clF46">
        <property role="TrG5h" value="concept" />
        <node concept="3bZ5Sz" id="5$" role="1tU5fm" />
      </node>
      <node concept="3clFbS" id="5z" role="3clF47">
        <node concept="1_3QMa" id="5_" role="3cqZAp">
          <node concept="37vLTw" id="5B" role="1_3QMn">
            <ref role="3cqZAo" node="5y" resolve="concept" />
          </node>
          <node concept="1pnPoh" id="5C" role="1_3QMm">
            <node concept="3clFbS" id="5E" role="1pnPq1">
              <node concept="3cpWs6" id="5G" role="3cqZAp">
                <node concept="1nCR9W" id="5H" role="3cqZAk">
                  <property role="1nD$Q0" value="Bibliography.constraints.AuthorRef_Constraints" />
                  <node concept="3uibUv" id="5I" role="2lIhxL">
                    <ref role="3uigEE" to="ze1i:~ConstraintsDescriptor" resolve="ConstraintsDescriptor" />
                  </node>
                </node>
              </node>
            </node>
            <node concept="3gn64h" id="5F" role="1pnPq6">
              <ref role="3gnhBz" to="u5vo:3mEyjojO82n" resolve="AuthorRef" />
            </node>
          </node>
          <node concept="3clFbS" id="5D" role="1prKM_" />
        </node>
        <node concept="3cpWs6" id="5A" role="3cqZAp">
          <node concept="2ShNRf" id="5J" role="3cqZAk">
            <node concept="1pGfFk" id="5K" role="2ShVmc">
              <ref role="37wK5l" to="79pl:~BaseConstraintsDescriptor.&lt;init&gt;(org.jetbrains.mps.openapi.language.SAbstractConcept)" resolve="BaseConstraintsDescriptor" />
              <node concept="37vLTw" id="5L" role="37wK5m">
                <ref role="3cqZAo" node="5y" resolve="concept" />
              </node>
            </node>
          </node>
        </node>
      </node>
    </node>
  </node>
  <node concept="39dXUE" id="5M">
    <node concept="39e2AJ" id="5N" role="39e2AI">
      <property role="39e3Y2" value="aspectDescriptorClass" />
      <node concept="39e2AG" id="5O" role="39e3Y0">
        <property role="2mV_xN" value="true" />
        <node concept="39e2AT" id="5P" role="39e2AY">
          <ref role="39e2AS" node="5m" resolve="ConstraintsAspectDescriptor" />
        </node>
      </node>
    </node>
  </node>
</model>

