<?xml version="1.0" encoding="UTF-8"?>
<model ref="r:02a1927a-8ae4-461e-9cba-95eb53e6e4cb(main@generator)">
  <persistence version="9" />
  <languages>
    <devkit ref="a2eb3a43-fcc2-4200-80dc-c60110c4862d(jetbrains.mps.devkit.templates)" />
  </languages>
  <imports>
    <import index="u5vo" ref="r:d4261686-76cd-4625-9a30-7257a3f0abb0(Bibliography.structure)" />
  </imports>
  <registry>
    <language id="b401a680-8325-4110-8fd3-84331ff25bef" name="jetbrains.mps.lang.generator">
      <concept id="1095416546421" name="jetbrains.mps.lang.generator.structure.MappingConfiguration" flags="ig" index="bUwia" />
    </language>
    <language id="ceab5195-25ea-4f22-9b92-103b95ca8c0c" name="jetbrains.mps.lang.core">
      <concept id="1169194658468" name="jetbrains.mps.lang.core.structure.INamedConcept" flags="ng" index="TrEIO">
        <property id="1169194664001" name="name" index="TrG5h" />
      </concept>
    </language>
  </registry>
  <node concept="bUwia" id="3mEyjojMcm$">
    <property role="TrG5h" value="main" />
  </node>
</model>

